Cross Validation and Bootstrap
…
x
0.067

Use the modelr package to do all of this

boot_straps = 
  sim_df_nonconst %>% 
  modelr::bootstrap(n = 1000)

as_data_frame(boot_straps$strap[[1]])

## Warning: `as_data_frame()` is deprecated, use `as_tibble()` (but mind the new semantics).
## This warning is displayed once per session.

## # A tibble: 250 x 3
##         x   error      y
##     <dbl>   <dbl>  <dbl>
##  1  0.574 -0.148   3.57 
##  2  1.91  -1.10    6.61 
##  3  1.11  -0.214   5.10 
##  4  0.220 -0.213   2.45 
##  5  1.46   1.19    7.58 
##  6 -0.409 -0.0107  0.763
##  7  1.49   1.14    7.62 
##  8  2.88  -0.620  10.0  
##  9  1.87  -0.995   6.61 
## 10  1.26   1.46    7.25 
## # … with 240 more rows
…
