Data Manipulation with dplyr
…
      Dashboard Example 1

      Dashboard Example 2

  CV

Data Manipulation with dplyr

1. Data Manipulations

Selecting

select(litters_data, group, litter_number, starts_with("pups"))

## # A tibble: 49 x 5
##   group litter_number pups_born_alive pups_dead_birth pups_survive
##   <chr> <chr>                   <int>           <int>        <int>
## 1 Con7  #85                         3               4            3
## 2 Con7  #1/2/95/2                   8               0            7
## 3 Con7  #5/5/3/83/3-3               6               0            5
## # … with 46 more rows

select(litters_data, litter_number, group, everything())

## # A tibble: 49 x 8
##   litter_number group gd0_weight gd18_weight gd_of_birth pups_born_alive
##   <chr>         <chr>      <dbl>       <dbl>       <int>           <int>
## 1 #85           Con7        19.7        34.7          20               3
## 2 #1/2/95/2     Con7        27          42            19               8
## 3 #5/5/3/83/3-3 Con7        26          41.4          19               6
## # … with 46 more rows, and 2 more variables: pups_dead_birth <int>,
## #   pups_survive <int>

# remove variable
select(litters_data, -group)

## # A tibble: 49 x 7
##   litter_number gd0_weight gd18_weight gd_of_birth pups_born_alive
##   <chr>              <dbl>       <dbl>       <int>           <int>
## 1 #85                 19.7        34.7          20               3
## 2 #1/2/95/2           27          42            19               8
## 3 #5/5/3/83/3-3       26          41.4          19               6
## # … with 46 more rows, and 2 more variables: pups_dead_birth <int>,
## #   pups_survive <int>

select(litters_data, litter_number, gd0_weight:pups_born_alive)

## # A tibble: 49 x 5
##   litter_number gd0_weight gd18_weight gd_of_birth pups_born_alive
##   <chr>              <dbl>       <dbl>       <int>           <int>
## 1 #85                 19.7        34.7          20               3
## 2 #1/2/95/2           27          42            19               8
## 3 #5/5/3/83/3-3       26          41.4          19               6
## # … with 46 more rows

# renmae the variable
select(litters_data, GROUP = group, litter_number)

## # A tibble: 49 x 2
##   GROUP litter_number
##   <chr> <chr>        
## 1 Con7  #85          
## 2 Con7  #1/2/95/2    
## 3 Con7  #5/5/3/83/3-3
## # … with 46 more rows

# just rename the variable but no selection
rename(litters_data, GROUP = group)

## # A tibble: 49 x 8
##   GROUP litter_number gd0_weight gd18_weight gd_of_birth pups_born_alive
##   <chr> <chr>              <dbl>       <dbl>       <int>           <int>
## 1 Con7  #85                 19.7        34.7          20               3
## 2 Con7  #1/2/95/2           27          42            19               8
## 3 Con7  #5/5/3/83/3-3       26          41.4          19               6
## # … with 46 more rows, and 2 more variables: pups_dead_birth <int>,
## #   pups_survive <int>
…
filter(litters_data, gd0_weight < gd18_weight)

## # A tibble: 31 x 8
##   group litter_number gd0_weight gd18_weight gd_of_birth pups_born_alive
##   <chr> <chr>              <dbl>       <dbl>       <int>           <int>
## 1 Con7  #85                 19.7        34.7          20               3
## 2 Con7  #1/2/95/2           27          42            19               8
## 3 Con7  #5/5/3/83/3-3       26          41.4          19               6
## # … with 28 more rows, and 2 more variables: pups_dead_birth <int>,
## #   pups_survive <int>

# don't do this:
filter(litters_data, !is.na(gd0_weight))

## # A tibble: 34 x 8
##   group litter_number gd0_weight gd18_weight gd_of_birth pups_born_alive
##   <chr> <chr>              <dbl>       <dbl>       <int>           <int>
## 1 Con7  #85                 19.7        34.7          20               3
## 2 Con7  #1/2/95/2           27          42            19               8
## 3 Con7  #5/5/3/83/3-3       26          41.4          19               6
## # … with 31 more rows, and 2 more variables: pups_dead_birth <int>,
## #   pups_survive <int>

# recommend:
drop_na(litters_data, gd0_weight)

## # A tibble: 34 x 8
##   group litter_number gd0_weight gd18_weight gd_of_birth pups_born_alive
##   <chr> <chr>              <dbl>       <dbl>       <int>           <int>
## 1 Con7  #85                 19.7        34.7          20               3
## 2 Con7  #1/2/95/2           27          42            19               8
## 3 Con7  #5/5/3/83/3-3       26          41.4          19               6
## # … with 31 more rows, and 2 more variables: pups_dead_birth <int>,
## #   pups_survive <int>

Mutate the data

mutate(
  litters_data, 
  wt_gain = gd18_weight - gd0_weight,
  group = str_to_lower(group),
  group = str_to_upper(group))

## # A tibble: 49 x 9
##   group litter_number gd0_weight gd18_weight gd_of_birth pups_born_alive
##   <chr> <chr>              <dbl>       <dbl>       <int>           <int>
## 1 CON7  #85                 19.7        34.7          20               3
## 2 CON7  #1/2/95/2           27          42            19               8
## 3 CON7  #5/5/3/83/3-3       26          41.4          19               6
## # … with 46 more rows, and 3 more variables: pups_dead_birth <int>,
## #   pups_survive <int>, wt_gain <dbl>

Arrange

arrange(litters_data, pups_born_alive)

## # A tibble: 49 x 8
##   group litter_number gd0_weight gd18_weight gd_of_birth pups_born_alive
##   <chr> <chr>              <dbl>       <dbl>       <int>           <int>
## 1 Con7  #85                 19.7        34.7          20               3
## 2 Low7  #111                25.5        44.6          20               3
## 3 Low8  #4/84               21.8        35.2          20               4
## # … with 46 more rows, and 2 more variables: pups_dead_birth <int>,
## #   pups_survive <int>

arrange(litters_data, pups_born_alive, gd0_weight)

## # A tibble: 49 x 8
##   group litter_number gd0_weight gd18_weight gd_of_birth pups_born_alive
##   <chr> <chr>              <dbl>       <dbl>       <int>           <int>
## 1 Con7  #85                 19.7        34.7          20               3
## 2 Low7  #111                25.5        44.6          20               3
## 3 Low8  #4/84               21.8        35.2          20               4
## # … with 46 more rows, and 2 more variables: pups_dead_birth <int>,
## #   pups_survive <int>

An Example

litters_data = 
  read_csv("./data/FAS_litters.csv", col_types = "ccddiiii") %>%
  janitor::clean_names() %>%
  select(-pups_survive) %>%
  mutate(
    wt_gain = gd18_weight - gd0_weight,
    group = str_to_lower(group)) %>% 
  drop_na(wt_gain)

litters_data

## # A tibble: 31 x 8
##   group litter_number gd0_weight gd18_weight gd_of_birth pups_born_alive
##   <chr> <chr>              <dbl>       <dbl>       <int>           <int>
## 1 con7  #85                 19.7        34.7          20               3
## 2 con7  #1/2/95/2           27          42            19               8
## 3 con7  #5/5/3/83/3-3       26          41.4          19               6
## # … with 28 more rows, and 2 more variables: pups_dead_birth <int>,
## #   wt_gain <dbl>
…
pulse_data

## # A tibble: 4,348 x 5
##      id   age sex   visit   bdi
##   <dbl> <dbl> <chr> <chr> <dbl>
## 1 10003  48.0 male  00m       7
## 2 10003  48.0 male  01m       1
## 3 10003  48.0 male  06m       2
## # … with 4,345 more rows
…
Joining datasets

pup_data = 
  read_csv("./data/FAS_pups.csv", col_types = "ciiiii") %>%
  janitor::clean_names() %>%
  mutate(sex = recode(sex, `1` = "male", `2` = "female")) 

pup_data

## # A tibble: 313 x 6
##   litter_number sex   pd_ears pd_eyes pd_pivot pd_walk
##   <chr>         <chr>   <int>   <int>    <int>   <int>
## 1 #85           male        4      13        7      11
## 2 #85           male        4      13        7      12
## 3 #1/2/95/2     male        5      13        7       9
## # … with 310 more rows

litter_data = 
  read_csv("./data/FAS_litters.csv", col_types = "ccddiiii") %>%
  janitor::clean_names() %>%
  select(-pups_survive) %>%
  mutate(
    wt_gain = gd18_weight - gd0_weight,
    group = str_to_lower(group))

litter_data

## # A tibble: 49 x 8
##   group litter_number gd0_weight gd18_weight gd_of_birth pups_born_alive
##   <chr> <chr>              <dbl>       <dbl>       <int>           <int>
## 1 con7  #85                 19.7        34.7          20               3
## 2 con7  #1/2/95/2           27          42            19               8
## 3 con7  #5/5/3/83/3-3       26          41.4          19               6
## # … with 46 more rows, and 2 more variables: pups_dead_birth <int>,
## #   wt_gain <dbl>

fas_data = 
  left_join(pup_data, litter_data, by = "litter_number") # by = c('xx', 'xx') or by = c('a' = 'b')

fas_data

## # A tibble: 313 x 13
##   litter_number sex   pd_ears pd_eyes pd_pivot pd_walk group gd0_weight
##   <chr>         <chr>   <int>   <int>    <int>   <int> <chr>      <dbl>
## 1 #85           male        4      13        7      11 con7        19.7
## 2 #85           male        4      13        7      12 con7        19.7
## 3 #1/2/95/2     male        5      13        7       9 con7        27  
## # … with 310 more rows, and 5 more variables: gd18_weight <dbl>,
## #   gd_of_birth <int>, pups_born_alive <int>, pups_dead_birth <int>,
## #   wt_gain <dbl>

full_join(pup_data, litter_data, by = 'litter_number')

## # A tibble: 315 x 13
##   litter_number sex   pd_ears pd_eyes pd_pivot pd_walk group gd0_weight
##   <chr>         <chr>   <int>   <int>    <int>   <int> <chr>      <dbl>
## 1 #85           male        4      13        7      11 con7        19.7
## 2 #85           male        4      13        7      12 con7        19.7
## 3 #1/2/95/2     male        5      13        7       9 con7        27  
## # … with 312 more rows, and 5 more variables: gd18_weight <dbl>,
## #   gd_of_birth <int>, pups_born_alive <int>, pups_dead_birth <int>,
## #   wt_gain <dbl>
…
