List Columns and Iteration
…
weather_nest

## # A tibble: 3 x 3
##   name           id                    data
##   <chr>          <chr>       <list<df[,4]>>
## 1 CentralPark_NY USW00094728      [366 × 4]
## 2 Waikiki_HA     USC00519397      [366 × 4]
## 3 Waterhole_WA   USS0023B17S      [366 × 4]

weather_nest %>% 
  pull(data) %>% 
  .[[1]]

## # A tibble: 366 x 4
##   date        prcp  tmax  tmin
##   <date>     <dbl> <dbl> <dbl>
## 1 2016-01-01     0   5.6   1.1
## 2 2016-01-02     0   4.4   0  
## 3 2016-01-03     0   7.2   1.7
## # … with 363 more rows

weather_nest$data[[1]]

## # A tibble: 366 x 4
##   date        prcp  tmax  tmin
##   <date>     <dbl> <dbl> <dbl>
## 1 2016-01-01     0   5.6   1.1
## 2 2016-01-02     0   4.4   0  
## 3 2016-01-03     0   7.2   1.7
## # … with 363 more rows

weather_nest %>% 
  unnest()

## Warning: `cols` is now required.
## Please use `cols = c(data)`

## # A tibble: 1,098 x 6
##   name           id          date        prcp  tmax  tmin
##   <chr>          <chr>       <date>     <dbl> <dbl> <dbl>
## 1 CentralPark_NY USW00094728 2016-01-01     0   5.6   1.1
## 2 CentralPark_NY USW00094728 2016-01-02     0   4.4   0  
## 3 CentralPark_NY USW00094728 2016-01-03     0   7.2   1.7
## # … with 1,095 more rows
…
